<?xml version="1.0" encoding="UTF-8"?>
<svg width="100px" height="101px" viewBox="0 0 100 101" version="1.1" xmlns="http://www.w3.org/2000/svg" xmlns:xlink="http://www.w3.org/1999/xlink">
    <!-- Generator: Sketch 52.3 (67297) - http://www.bohemiancoding.com/sketch -->
    <title>invitation-icon</title>
    <desc>Created with Sketch.</desc>
    <g id="Page-1" stroke="none" stroke-width="1" fill="none" fill-rule="evenodd">
        <g id="GitLab-First-Look" transform="translate(-314.000000, -1252.000000)">
            <g id="invitation-icon" transform="translate(315.000000, 1252.000000)">
                <polygon id="Fill-1" fill="#FFFFFF" points="0 99.098 98 99.098 98 43.098 0 43.098"></polygon>
                <g id="Group-25" transform="translate(0.000000, 0.098000)">
                    <polygon id="Stroke-2" stroke="#333333" stroke-width="2" stroke-linecap="round" stroke-linejoin="round" points="0 99 98 99 98 43 0 43"></polygon>
                    <path d="M0,42.9997 L98,42.9997 L52.904,2.3477 C50.658,0.4207 47.342,0.4207 45.096,2.3477 L0,42.9997 Z" id="Fill-4" fill="#FCF2EB"></path>
                    <path d="M0,42.9997 L98,42.9997 L52.904,2.3477 C50.658,0.4207 47.342,0.4207 45.096,2.3477 L0,42.9997 Z" id="Stroke-5" stroke="#333333" stroke-width="2" stroke-linecap="round" stroke-linejoin="round"></path>
                    <path d="M80,98.9997 L18,98.9997 C14.687,98.9997 12,96.3137 12,92.9997 L12,16.9997 C12,13.6867 14.687,10.9997 18,10.9997 L80,10.9997 C83.313,10.9997 86,13.6867 86,16.9997 L86,92.9997 C86,96.3137 83.313,98.9997 80,98.9997" id="Fill-6" fill="#FFFFFF"></path>
                    <path d="M80,98.9997 L18,98.9997 C14.687,98.9997 12,96.3137 12,92.9997 L12,16.9997 C12,13.6867 14.687,10.9997 18,10.9997 L80,10.9997 C83.313,10.9997 86,13.6867 86,16.9997 L86,92.9997 C86,96.3137 83.313,98.9997 80,98.9997 Z" id="Stroke-7" stroke="#333333" stroke-width="2" stroke-linecap="round" stroke-linejoin="round"></path>
                    <path d="M0,98.9997 L96,98.9997 C97.104,98.9997 98,98.1037 98,96.9997 L98,42.9997 L0,98.9997 Z" id="Fill-8" fill="#FCF2EB"></path>
                    <path d="M0,98.9997 L96,98.9997 C97.104,98.9997 98,98.1037 98,96.9997 L98,42.9997 L0,98.9997 Z" id="Stroke-9" stroke="#333333" stroke-width="2" stroke-linecap="round" stroke-linejoin="round"></path>
                    <path d="M98,98.9997 L2,98.9997 C0.896,98.9997 0,98.1037 0,96.9997 L0,42.9997 L98,98.9997 Z" id="Fill-10" fill="#FCF2EB"></path>
                    <path d="M98,98.9997 L2,98.9997 C0.896,98.9997 0,98.1037 0,96.9997 L0,42.9997 L98,98.9997 Z" id="Stroke-11" stroke="#333333" stroke-width="2" stroke-linecap="round" stroke-linejoin="round"></path>
                    <polygon id="Fill-12" fill="#FFFFFF" points="44 33.667 54 33.667 54 29.667 44 29.667"></polygon>
                    <polygon id="Stroke-13" stroke="#333333" stroke-width="2" stroke-linecap="round" stroke-linejoin="round" points="44 33.667 54 33.667 54 29.667 44 29.667"></polygon>
                    <path d="M49,18.6667 C49,19.7707 48.104,20.6667 47,20.6667 C45.896,20.6667 45,19.7707 45,18.6667 C45,17.5627 45.896,16.6667 47,16.6667 C48.104,16.6667 49,17.5627 49,18.6667" id="Fill-14" fill="#FCA326"></path>
                    <path d="M49,18.6667 C49,19.7707 48.104,20.6667 47,20.6667 C45.896,20.6667 45,19.7707 45,18.6667 C45,17.5627 45.896,16.6667 47,16.6667 C48.104,16.6667 49,17.5627 49,18.6667 Z" id="Stroke-15" stroke="#333333" stroke-width="2" stroke-linecap="round" stroke-linejoin="round"></path>
                    <path d="M60,22.6667 C60,24.3237 58.657,25.6667 57,25.6667 C55.343,25.6667 54,24.3237 54,22.6667 C54,21.0097 55.343,19.6667 57,19.6667 C58.657,19.6667 60,21.0097 60,22.6667" id="Fill-16" fill="#FC6D26"></path>
                    <path d="M60,22.6667 C60,24.3237 58.657,25.6667 57,25.6667 C55.343,25.6667 54,24.3237 54,22.6667 C54,21.0097 55.343,19.6667 57,19.6667 C58.657,19.6667 60,21.0097 60,22.6667 Z" id="Stroke-17" stroke="#333333" stroke-width="2" stroke-linecap="round" stroke-linejoin="round"></path>
                    <path d="M41,25.6667 C41,26.2197 40.553,26.6667 40,26.6667 C39.447,26.6667 39,26.2197 39,25.6667 C39,25.1137 39.447,24.6667 40,24.6667 C40.553,24.6667 41,25.1137 41,25.6667" id="Fill-18" fill="#333333"></path>
                    <path d="M52.2725,42.1618 L52.2725,33.6668 L45.7275,33.6668 L45.7275,42.1618 C41.2505,43.5558 38.0005,47.7308 38.0005,52.6668 C38.0005,58.7418 42.9245,63.6668 49.0005,63.6668 C55.0755,63.6668 60.0005,58.7418 60.0005,52.6668 C60.0005,47.7308 56.7505,43.5558 52.2725,42.1618" id="Fill-19" fill="#FFFFFF"></path>
                    <path d="M52.2725,42.1618 L52.2725,33.6668 L45.7275,33.6668 L45.7275,42.1618 C41.2505,43.5558 38.0005,47.7308 38.0005,52.6668 C38.0005,58.7418 42.9245,63.6668 49.0005,63.6668 C55.0755,63.6668 60.0005,58.7418 60.0005,52.6668 C60.0005,47.7308 56.7505,43.5558 52.2725,42.1618 Z" id="Stroke-20" stroke="#333333" stroke-width="2" stroke-linecap="round" stroke-linejoin="round"></path>
                    <path d="M55,49.6667 C55,50.2197 54.553,50.6667 54,50.6667 C53.447,50.6667 53,50.2197 53,49.6667 C53,49.1137 53.447,48.6667 54,48.6667 C54.553,48.6667 55,49.1137 55,49.6667" id="Fill-21" fill="#333333"></path>
                    <path d="M54.084,55.0007 C54.084,53.8957 53.188,53.0007 52.084,53.0007 C50.979,53.0007 50.084,53.8957 50.084,55.0007 L38.254,55.0007 C39.324,59.9537 43.727,63.6667 49,63.6667 C54.273,63.6667 58.676,59.9537 59.746,55.0007 L54.084,55.0007 Z" id="Fill-22" fill="#9795F9"></path>
                    <path d="M54.084,55.0007 C54.084,53.8957 53.188,53.0007 52.084,53.0007 C50.979,53.0007 50.084,53.8957 50.084,55.0007 L38.254,55.0007 C39.324,59.9537 43.727,63.6667 49,63.6667 C54.273,63.6667 58.676,59.9537 59.746,55.0007 L54.084,55.0007 Z" id="Stroke-23" stroke="#333333" stroke-width="2" stroke-linecap="round" stroke-linejoin="round"></path>
                    <path d="M47,58.6667 C47,59.2197 46.553,59.6667 46,59.6667 C45.447,59.6667 45,59.2197 45,58.6667 C45,58.1137 45.447,57.6667 46,57.6667 C46.553,57.6667 47,58.1137 47,58.6667" id="Fill-24" fill="#333333"></path>
                </g>
            </g>
        </g>
    </g>
</svg>